{
    "version": "115.18.0",
    "description": "A free email application that’s easy to set up and customize.",
    "homepage": "https://www.thunderbird.net",
    "license": "MPL-2.0",
    "architecture": {
        "64bit": {
            "url": "https://archive.mozilla.org/pub/thunderbird/releases/115.18.0/win64/ru/Thunderbird%20Setup%20115.18.0.exe#/dl.7z",
            "hash": "sha512:0ef296bdd74ecceafdad7d329e3b5cf2d6dcee147bd59996127b6230c9b2d5ec7988f47faf10a4f4bef837d6d2bac4df464473d0f982e5c4166c978bdc1890f1"
        },
        "32bit": {
            "url": "https://archive.mozilla.org/pub/thunderbird/releases/115.18.0/win32/ru/Thunderbird%20Setup%20115.18.0.exe#/dl.7z",
            "hash": "sha512:33e1eab90ed5e30e7d4c5be3ac1fe9f8ac1d0cc385f62b456f41cee8d2743d9e0f4a3fe96ce0ee3ae2ad2dafec01882911c7475bfe421a40632a03b786c69e1f"
        }
    },
    "extract_dir": "core",
    "bin": "thunderbird.exe",
    "shortcuts": [
        [
            "thunderbird.exe",
            "Thunderbird ESR"
        ],
        [
            "thunderbird.exe",
            "Thunderbird ESR Profile Manager",
            "-P"
        ]
    ],
    "checkver": {
        "url": "https://www.thunderbird.net/ru/thunderbird/all/",
        "regex": "https://download\\.mozilla\\.org/\\?product=thunderbird-(115[\\d.]+)-SSL&os=win64&lang=ru"
    },
    "autoupdate": {
        "architecture": {
            "64bit": {
                "url": "https://archive.mozilla.org/pub/thunderbird/releases/$version/win64/ru/Thunderbird%20Setup%20$version.exe#/dl.7z",
                "hash": {
                    "url": "https://archive.mozilla.org/pub/thunderbird/releases/$version/SHA512SUMS",
                    "regex": "$sha512\\s+win64/ru/$basename"
                }
            },
            "32bit": {
                "url": "https://archive.mozilla.org/pub/thunderbird/releases/$version/win32/ru/Thunderbird%20Setup%20$version.exe#/dl.7z",
                "hash": {
                    "url": "https://archive.mozilla.org/pub/thunderbird/releases/$version/SHA512SUMS",
                    "regex": "$sha512\\s+win32/ru/$basename"
                }
            }
        }
    }
}
